India Covid data · Portfolio website for Ishita Gupta
…
How has testing increased in India?

testing <- covid_data %>%
  drop_na(TotalSamples,Positive) %>%
  filter(Date<'2020-08-05') %>%
  group_by(Date) %>%
  summarise(sum_testing=sum(TotalSamples),sum_positive=sum(Positive))

## `summarise()` ungrouping output (override with `.groups` argument)

testing

## # A tibble: 126 x 3
##    Date       sum_testing sum_positive
##    <date>           <dbl>        <dbl>
##  1 2020-04-01        8624          302
##  2 2020-04-02       14906          510
##  3 2020-04-03       20130          898
##  4 2020-04-04        9744          306
##  5 2020-04-05       40410         1461
##  6 2020-04-06       28397         1196
##  7 2020-04-07       75446         2974
##  8 2020-04-08       63058         2473
##  9 2020-04-09      107720         4681
## 10 2020-04-10      153601         6490
## # ... with 116 more rows
…
testing <- covid_data %>%
  drop_na(TotalSamples,Positive) %>%
  mutate(testing_in_millions=TotalSamples/1000000) %>%
  filter(Date<'2020-08-05') %>%
  group_by(Date) %>%
  summarise(sum_testing=sum(testing_in_millions),sum_positive=sum(Positive))

## `summarise()` ungrouping output (override with `.groups` argument)

testing

## # A tibble: 126 x 3
##    Date       sum_testing sum_positive
##    <date>           <dbl>        <dbl>
##  1 2020-04-01     0.00862          302
##  2 2020-04-02     0.0149           510
##  3 2020-04-03     0.0201           898
##  4 2020-04-04     0.00974          306
##  5 2020-04-05     0.0404          1461
##  6 2020-04-06     0.0284          1196
##  7 2020-04-07     0.0754          2974
##  8 2020-04-08     0.0631          2473
##  9 2020-04-09     0.108           4681
## 10 2020-04-10     0.154           6490
## # ... with 116 more rows
…
state_data <- statewise %>%
  drop_na(Confirmed,Deaths,Cured) %>%
 # filter(Date<'01/08/20') %>%
  group_by(Date) %>%
  summarise(sum_confirmed=sum(Confirmed),sum_deaths=sum(Deaths),sum_cured=sum(Cured))

## `summarise()` ungrouping output (override with `.groups` argument)

state_data

## # A tibble: 230 x 4
##    Date     sum_confirmed sum_deaths sum_cured
##    <chr>            <dbl>      <dbl>     <dbl>
##  1 01/02/20             2          0         0
##  2 01/03/20             3          0         0
##  3 01/04/20          1834         41       144
##  4 01/05/20         34972       1152      9065
##  5 01/06/20        190535       5394     91819
##  6 01/07/20        585493      17400    347979
##  7 01/08/20       1695988      36511   1094374
##  8 01/09/20       3691166      65288   2839882
##  9 02/02/20             3          0         0
## 10 02/03/20             5          0         0
## # ... with 220 more rows

state_data <- statewise %>%
 # drop_na(Confirmed,Deaths,Cured) %>%
 # filter(Date<'01/08/20') %>%
  group_by(Date) %>%
  summarise(sum_confirmed=sum(Confirmed),sum_deaths=sum(Deaths),sum_cured=sum(Cured))

## `summarise()` ungrouping output (override with `.groups` argument)

state_data

## # A tibble: 230 x 4
##    Date     sum_confirmed sum_deaths sum_cured
##    <chr>            <dbl>      <dbl>     <dbl>
##  1 01/02/20             2          0         0
##  2 01/03/20             3          0         0
##  3 01/04/20          1834         41       144
##  4 01/05/20         34972       1152      9065
##  5 01/06/20        190535       5394     91819
##  6 01/07/20        585493      17400    347979
##  7 01/08/20       1695988      36511   1094374
##  8 01/09/20       3691166      65288   2839882
##  9 02/02/20             3          0         0
## 10 02/03/20             5          0         0
## # ... with 220 more rows

worst_hit_confirmed <- statewise %>%
  #drop_na(Confirmed,Deaths,Cured) %>%
  #filter(Date<'01/08/20') %>%
  rename(state='State/UnionTerritory') %>%
  group_by(state) %>%
  summarise(sum_confirmed=sum(Confirmed),sum_deaths=sum(Deaths),sum_cured=sum(Cured)) %>%
  arrange(desc(sum_confirmed))

## `summarise()` ungrouping output (override with `.groups` argument)

worst_hit_confirmed

## # A tibble: 42 x 4
##    state          sum_confirmed sum_deaths sum_cured
##    <chr>                  <dbl>      <dbl>     <dbl>
##  1 Maharashtra         45420878    1542433  29474209
##  2 Tamil Nadu          24007706     384375  18851765
##  3 Andhra Pradesh      18127026     169332  12869306
##  4 Karnataka           14950877     255536   9608541
##  5 Delhi               12958046     357158  10489651
##  6 Uttar Pradesh       10775437     185139   7457390
##  7 West Bengal          7905733     180920   5971975
##  8 Gujarat              6474026     262341   4808691
##  9 Bihar                6208053      31593   4845770
## 10 Telengana            5312127      39345   3987460
## # ... with 32 more rows

worst_hit_deaths <- statewise %>%
  #drop_na(Confirmed,Deaths,Cured) %>%
  #filter(Date<'01/08/20') %>%
  rename(state='State/UnionTerritory') %>%
  group_by(state) %>%
  summarise(sum_confirmed=sum(Confirmed),sum_deaths=sum(Deaths),sum_cured=sum(Cured)) %>%
  arrange(desc(sum_deaths))

## `summarise()` ungrouping output (override with `.groups` argument)

worst_hit_deaths

## # A tibble: 42 x 4
##    state          sum_confirmed sum_deaths sum_cured
##    <chr>                  <dbl>      <dbl>     <dbl>
##  1 Maharashtra         45420878    1542433  29474209
##  2 Tamil Nadu          24007706     384375  18851765
##  3 Delhi               12958046     357158  10489651
##  4 Gujarat              6474026     262341   4808691
##  5 Karnataka           14950877     255536   9608541
##  6 Uttar Pradesh       10775437     185139   7457390
##  7 West Bengal          7905733     180920   5971975
##  8 Andhra Pradesh      18127026     169332  12869306
##  9 Madhya Pradesh       3696668     102363   2676646
## 10 Rajasthan            4690519      73720   3580847
## # ... with 32 more rows

best_recovery_rate <- statewise %>%
  #drop_na(Confirmed,Deaths,Cured) %>%
  #filter(Date<'01/08/20') %>%
  rename(state='State/UnionTerritory') %>%
  group_by(state) %>%
  summarise(sum_confirmed=sum(Confirmed),sum_deaths=sum(Deaths),sum_cured=sum(Cured)) %>%
  arrange(desc(sum_cured))

## `summarise()` ungrouping output (override with `.groups` argument)

best_recovery_rate

## # A tibble: 42 x 4
##    state          sum_confirmed sum_deaths sum_cured
##    <chr>                  <dbl>      <dbl>     <dbl>
##  1 Maharashtra         45420878    1542433  29474209
##  2 Tamil Nadu          24007706     384375  18851765
##  3 Andhra Pradesh      18127026     169332  12869306
##  4 Delhi               12958046     357158  10489651
##  5 Karnataka           14950877     255536   9608541
##  6 Uttar Pradesh       10775437     185139   7457390
##  7 West Bengal          7905733     180920   5971975
##  8 Bihar                6208053      31593   4845770
##  9 Gujarat              6474026     262341   4808691
## 10 Telengana            5312127      39345   3987460
## # ... with 32 more rows
…
