…
Data Wrangling

We now drop the NA values from the fields we want to perform our analysis.

state_data <- statewise %>%
  drop_na(Confirmed,Deaths,Cured) %>%
 # filter(Date<'01/08/20') %>%
  group_by(Date) %>%
  summarise(sum_confirmed=sum(Confirmed),sum_deaths=sum(Deaths),sum_cured=sum(Cured))

## `summarise()` ungrouping output (override with `.groups` argument)

state_data

## # A tibble: 230 x 4
##    Date     sum_confirmed sum_deaths sum_cured
##    <chr>            <dbl>      <dbl>     <dbl>
##  1 01/02/20             2          0         0
##  2 01/03/20             3          0         0
##  3 01/04/20          1834         41       144
##  4 01/05/20         34972       1152      9065
##  5 01/06/20        190535       5394     91819
##  6 01/07/20        585493      17400    347979
##  7 01/08/20       1695988      36511   1094374
##  8 01/09/20       3691166      65288   2839882
##  9 02/02/20             3          0         0
## 10 02/03/20             5          0         0
## # ... with 220 more rows
…
