…
tidy_worldbank<- worldbank_data %>% 
  rename(
    year = date,
    GDP_per_capita=NY.GDP.PCAP.KD,
    primary_school_enrollment=SE.PRM.NENR,
    mortality_rate=SH.DYN.MORT,
    fertility_rate=SP.DYN.TFRT.IN
    ) %>% #renaming columns to simpler names
  mutate(year=as.character(year) ) #converting numeric column to character

join1<- full_join(tidy_hiv, tidy_lifeexpectancy, by = c('country','year')) #joining hiv and life_expectancy
join2<- full_join(join1, tidy_worldbank, by = c('country','year')) #joining the above with worldbank data
join2

## # A tibble: 58,852 x 10
##    country year  hiv_rate life_expectancy~ iso2c iso3c GDP_per_capita
##    <chr>   <chr>    <dbl>            <dbl> <chr> <chr>          <dbl>
##  1 Afghan~ 1979        NA             44.4 AF    AFG               NA
##  2 Afghan~ 1980        NA             44.1 AF    AFG               NA
##  3 Afghan~ 1981        NA             44.9 AF    AFG               NA
##  4 Afghan~ 1982        NA             44.6 AF    AFG               NA
##  5 Afghan~ 1983        NA             42.8 AF    AFG               NA
##  6 Afghan~ 1984        NA             40.5 AF    AFG               NA
##  7 Afghan~ 1985        NA             42.4 AF    AFG               NA
##  8 Afghan~ 1986        NA             43.4 AF    AFG               NA
##  9 Afghan~ 1987        NA             45.5 AF    AFG               NA
## 10 Afghan~ 1988        NA             47.9 AF    AFG               NA
## # ... with 58,842 more rows, and 3 more variables:
## #   primary_school_enrollment <dbl>, mortality_rate <dbl>, fertility_rate <dbl>

main_table<- left_join(join2, countries, by = 'country') #joining above with countries table
main_table #final table for hiv,life_expectancy,worldbank and countries

## # A tibble: 58,852 x 27
##    country year  hiv_rate life_expectancy~ iso2c.x iso3c.x GDP_per_capita
##    <chr>   <chr>    <dbl>            <dbl> <chr>   <chr>            <dbl>
##  1 Afghan~ 1979        NA             44.4 AF      AFG                 NA
##  2 Afghan~ 1980        NA             44.1 AF      AFG                 NA
##  3 Afghan~ 1981        NA             44.9 AF      AFG                 NA
##  4 Afghan~ 1982        NA             44.6 AF      AFG                 NA
##  5 Afghan~ 1983        NA             42.8 AF      AFG                 NA
##  6 Afghan~ 1984        NA             40.5 AF      AFG                 NA
##  7 Afghan~ 1985        NA             42.4 AF      AFG                 NA
##  8 Afghan~ 1986        NA             43.4 AF      AFG                 NA
##  9 Afghan~ 1987        NA             45.5 AF      AFG                 NA
## 10 Afghan~ 1988        NA             47.9 AF      AFG                 NA
## # ... with 58,842 more rows, and 20 more variables:
## #   primary_school_enrollment <dbl>, mortality_rate <dbl>,
## #   fertility_rate <dbl>, iso3c.y <chr>, iso2c.y <chr>, capital_city <chr>,
## #   longitude <dbl>, latitude <dbl>, region_iso3c <chr>, region_iso2c <chr>,
## #   region <chr>, admin_region_iso3c <chr>, admin_region_iso2c <chr>,
## #   admin_region <chr>, income_level_iso3c <chr>, income_level_iso2c <chr>,
## #   income_level <chr>, lending_type_iso3c <chr>, lending_type_iso2c <chr>,
## #   lending_type <chr>

We are using a full outer join for hiv, life expectancy and worldbank data since each of the three may have NA in some places but we want all of the data for analysis.
We do a left join of the above three with countries because we want the country data corresponding to each entry for the above parameters.

Relationship between HIV prevalence and life expectancy

main_table_na<- main_table %>% 
  drop_na()

main_table_na

## # A tibble: 1,064 x 27
##    country year  hiv_rate life_expectancy~ iso2c.x iso3c.x GDP_per_capita
##    <chr>   <chr>    <dbl>            <dbl> <chr>   <chr>            <dbl>
##  1 Algeria 1990      0.06             71.7 DZ      DZA              3572.
##  2 Algeria 1991      0.06             72.2 DZ      DZA              3444.
##  3 Algeria 1992      0.06             72.5 DZ      DZA              3424.
##  4 Algeria 1993      0.06             72.7 DZ      DZA              3279.
##  5 Algeria 1994      0.06             72.8 DZ      DZA              3183.
##  6 Algeria 1995      0.06             72.9 DZ      DZA              3241.
##  7 Algeria 1996      0.06             73.3 DZ      DZA              3315.
##  8 Algeria 1997      0.06             73.2 DZ      DZA              3298.
##  9 Algeria 1999      0.06             73.9 DZ      DZA              3474.
## 10 Algeria 2000      0.06             74   DZ      DZA              3558.
## # ... with 1,054 more rows, and 20 more variables:
## #   primary_school_enrollment <dbl>, mortality_rate <dbl>,
## #   fertility_rate <dbl>, iso3c.y <chr>, iso2c.y <chr>, capital_city <chr>,
## #   longitude <dbl>, latitude <dbl>, region_iso3c <chr>, region_iso2c <chr>,
## #   region <chr>, admin_region_iso3c <chr>, admin_region_iso2c <chr>,
## #   admin_region <chr>, income_level_iso3c <chr>, income_level_iso2c <chr>,
## #   income_level <chr>, lending_type_iso3c <chr>, lending_type_iso2c <chr>,
## #   lending_type <chr>
…
From the graphs above, we can infer that the data is right skewed which means that having lower HIV prevalence generally has a higher life expectancy. This is particularly true for the Asian and American countries, however in the African countries we see the higher HIV prevalence and a lower life expectancy.

What is the relationship between fertility rate and GDP per capita? Generate a scatterplot with a smoothing line to report your results. You may find facetting by region useful

grouping_table<-main_table%>% 
  drop_na(c('GDP_per_capita','fertility_rate'))%>%
  group_by(region,year) %>%
  summarize(mean_GDP=mean(GDP_per_capita),mean_fertility_rate=mean(fertility_rate))

## `summarise()` regrouping output by 'region' (override with `.groups` argument)

grouping_table

## # A tibble: 399 x 4
## # Groups:   region [7]
##    region              year  mean_GDP mean_fertility_rate
##    <chr>               <chr>    <dbl>               <dbl>
##  1 East Asia & Pacific 1960     3272.                5.61
##  2 East Asia & Pacific 1961     3371.                5.52
##  3 East Asia & Pacific 1962     3459.                5.47
##  4 East Asia & Pacific 1963     3653.                5.41
##  5 East Asia & Pacific 1964     3837.                5.33
##  6 East Asia & Pacific 1965     4015.                5.23
##  7 East Asia & Pacific 1966     4156.                5.09
##  8 East Asia & Pacific 1967     4403.                4.99
##  9 East Asia & Pacific 1968     4692.                4.88
## 10 East Asia & Pacific 1969     5032.                4.76
## # ... with 389 more rows
…
We see that there is an almost linear relation between fertility rate and GDP for most regions except ‘Middle East and North Africa’. We also see a steep trend in regions with more developing countries like in the case of ‘South Asia’ and ‘Latin America’.

How has the Mortality rate changed by region?

plot_mortality<-main_table %>%
  drop_na(mortality_rate) %>%
  group_by(region,year)%>%
  summarize(mean_mortality_rate=mean(mortality_rate))

## `summarise()` regrouping output by 'region' (override with `.groups` argument)

plot_mortality

## # A tibble: 399 x 3
## # Groups:   region [7]
##    region              year  mean_mortality_rate
##    <chr>               <chr>               <dbl>
##  1 East Asia & Pacific 1960                112. 
##  2 East Asia & Pacific 1961                107. 
##  3 East Asia & Pacific 1962                102. 
##  4 East Asia & Pacific 1963                101. 
##  5 East Asia & Pacific 1964                 96.2
##  6 East Asia & Pacific 1965                 92.4
##  7 East Asia & Pacific 1966                 88.8
##  8 East Asia & Pacific 1967                 85.3
##  9 East Asia & Pacific 1968                 86.9
## 10 East Asia & Pacific 1969                 85.3
## # ... with 389 more rows
…
